%YAML 1.1
%TAG !u! tag:unity3d.com,2011:
--- !u!1 &1990836903362942958
GameObject:
  m_ObjectHideFlags: 0
  m_CorrespondingSourceObject: {fileID: 0}
  m_PrefabInstance: {fileID: 0}
  m_PrefabAsset: {fileID: 0}
  serializedVersion: 6
  m_Component:
  - component: {fileID: 3765197027384284656}
  - component: {fileID: 4853109674081852075}
  - component: {fileID: 1336822742294608327}
  m_Layer: 0
  m_Name: Fairy
  m_TagString: Untagged
  m_Icon: {fileID: 0}
  m_NavMeshLayer: 0
  m_StaticEditorFlags: 0
  m_IsActive: 1
--- !u!4 &3765197027384284656
Transform:
  m_ObjectHideFlags: 0
  m_CorrespondingSourceObject: {fileID: 0}
  m_PrefabInstance: {fileID: 0}
  m_PrefabAsset: {fileID: 0}
  m_GameObject: {fileID: 1990836903362942958}
  m_LocalRotation: {x: 0, y: 0, z: 0, w: 1}
  m_LocalPosition: {x: 0, y: 0, z: 0}
  m_LocalScale: {x: 1, y: 1, z: 1}
  m_Children: []
  m_Father: {fileID: 0}
  m_RootOrder: 0
  m_LocalEulerAnglesHint: {x: 0, y: 0, z: 0}
--- !u!114 &4853109674081852075
MonoBehaviour:
  m_ObjectHideFlags: 0
  m_CorrespondingSourceObject: {fileID: 0}
  m_PrefabInstance: {fileID: 0}
  m_PrefabAsset: {fileID: 0}
  m_GameObject: {fileID: 1990836903362942958}
  m_Enabled: 1
  m_EditorHideFlags: 0
  m_Script: {fileID: 11500000, guid: 83c5a6593a0b96944a09ebee5ee0398f, type: 3}
  m_Name: 
  m_EditorClassIdentifier: 
  sprites:
  - {fileID: 21300000, guid: 9827ed381b2544f44984c996f2da88cd, type: 3}
  - {fileID: 21300000, guid: 2a1158225cbd474418e2d3feac062c18, type: 3}
  - {fileID: 21300000, guid: 2a1158225cbd474418e2d3feac062c18, type: 3}
  - {fileID: 21300000, guid: 88b573e526251634794514d3740fe555, type: 3}
  - {fileID: 21300000, guid: b919d2c13525551439b49fc8d7799699, type: 3}
  - {fileID: 21300000, guid: f8de8014e914f624f92adf01c09f12ed, type: 3}
  - {fileID: 21300000, guid: acba485e7bf6a2a47bbc76265c8ec346, type: 3}
  - {fileID: 21300000, guid: f9201de576dda124fb1d6ec562f895c9, type: 3}
  - {fileID: 21300000, guid: c0e95cb6774a7e5468527f065e156f02, type: 3}
  - {fileID: 21300000, guid: 8e89ddd960d2e744d93dae560a3405e3, type: 3}
  - {fileID: 21300000, guid: c6e5a5686aad85b498f857974cfd3e99, type: 3}
  - {fileID: 21300000, guid: c6e5a5686aad85b498f857974cfd3e99, type: 3}
  size: {x: 0.08, y: 0.08, z: 1}
  NAME: "\u5996\u7CBE"
  MAX_HP: 10
  HP: 10
  ATC: 2
  DEF: 1
  EXP: 10
  RANK: 0
  LIFE: 0
  weapon: 2
  isColl: 0
--- !u!212 &1336822742294608327
SpriteRenderer:
  m_ObjectHideFlags: 0
  m_CorrespondingSourceObject: {fileID: 0}
  m_PrefabInstance: {fileID: 0}
  m_PrefabAsset: {fileID: 0}
  m_GameObject: {fileID: 1990836903362942958}
  m_Enabled: 1
  m_CastShadows: 0
  m_ReceiveShadows: 0
  m_DynamicOccludee: 1
  m_MotionVectors: 1
  m_LightProbeUsage: 1
  m_ReflectionProbeUsage: 1
  m_RayTracingMode: 0
  m_RayTraceProcedural: 0
  m_RenderingLayerMask: 1
  m_RendererPriority: 0
  m_Materials:
  - {fileID: 10754, guid: 0000000000000000f000000000000000, type: 0}
  m_StaticBatchInfo:
    firstSubMesh: 0
    subMeshCount: 0
  m_StaticBatchRoot: {fileID: 0}
  m_ProbeAnchor: {fileID: 0}
  m_LightProbeVolumeOverride: {fileID: 0}
  m_ScaleInLightmap: 1
  m_ReceiveGI: 1
  m_PreserveUVs: 0
  m_IgnoreNormalsForChartDetection: 0
  m_ImportantGI: 0
  m_StitchLightmapSeams: 1
  m_SelectedEditorRenderState: 0
  m_MinimumChartSize: 4
  m_AutoUVMaxDistance: 0.5
  m_AutoUVMaxAngle: 89
  m_LightmapParameters: {fileID: 0}
  m_SortingLayerID: 0
  m_SortingLayer: 0
  m_SortingOrder: 7
  m_Sprite: {fileID: 0}
  m_Color: {r: 1, g: 1, b: 1, a: 1}
  m_FlipX: 0
  m_FlipY: 0
  m_DrawMode: 0
  m_Size: {x: 1, y: 1}
  m_AdaptiveModeThreshold: 0.5
  m_SpriteTileMode: 0
  m_WasSpriteAssigned: 0
  m_MaskInteraction: 0
  m_SpriteSortPoint: 0
