%YAML 1.1
%TAG !u! tag:unity3d.com,2011:
--- !u!1 &712208692472389294
GameObject:
  m_ObjectHideFlags: 0
  m_CorrespondingSourceObject: {fileID: 0}
  m_PrefabInstance: {fileID: 0}
  m_PrefabAsset: {fileID: 0}
  serializedVersion: 6
  m_Component:
  - component: {fileID: 8966450402866790454}
  - component: {fileID: 883064901309243281}
  - component: {fileID: 6454934921601268520}
  m_Layer: 0
  m_Name: Minotaur
  m_TagString: Untagged
  m_Icon: {fileID: 0}
  m_NavMeshLayer: 0
  m_StaticEditorFlags: 0
  m_IsActive: 1
--- !u!4 &8966450402866790454
Transform:
  m_ObjectHideFlags: 0
  m_CorrespondingSourceObject: {fileID: 0}
  m_PrefabInstance: {fileID: 0}
  m_PrefabAsset: {fileID: 0}
  m_GameObject: {fileID: 712208692472389294}
  m_LocalRotation: {x: 0, y: 0, z: 0, w: 1}
  m_LocalPosition: {x: 0, y: 0, z: 0}
  m_LocalScale: {x: 1, y: 1, z: 1}
  m_Children: []
  m_Father: {fileID: 0}
  m_RootOrder: 0
  m_LocalEulerAnglesHint: {x: 0, y: 0, z: 0}
--- !u!114 &883064901309243281
MonoBehaviour:
  m_ObjectHideFlags: 0
  m_CorrespondingSourceObject: {fileID: 0}
  m_PrefabInstance: {fileID: 0}
  m_PrefabAsset: {fileID: 0}
  m_GameObject: {fileID: 712208692472389294}
  m_Enabled: 1
  m_EditorHideFlags: 0
  m_Script: {fileID: 11500000, guid: 25f52107c8443f34aa6cbf23f6b26e3a, type: 3}
  m_Name: 
  m_EditorClassIdentifier: 
  sprites:
  - {fileID: 21300000, guid: 23c3df1514728f0488944882d9089677, type: 3}
  - {fileID: 21300000, guid: ac85da9f86994a744a53a6496d1b135d, type: 3}
  - {fileID: 21300000, guid: df8ac0ef8f292924396cd9b22c7227f5, type: 3}
  - {fileID: 21300000, guid: e2b6d07a300445f4aa7557ecd4423950, type: 3}
  - {fileID: 21300000, guid: 65e5bc1120fe347439da10130460f852, type: 3}
  - {fileID: 21300000, guid: 93a9a588a0e7dec48b206512e5fd1ef2, type: 3}
  - {fileID: 21300000, guid: 119d1c0ef7995aa40a16524236aff1ff, type: 3}
  - {fileID: 21300000, guid: ae50870c294f77541a6fd21fd5a81aed, type: 3}
  - {fileID: 21300000, guid: 077afaed68bd631498760ed4fd8e90cc, type: 3}
  - {fileID: 21300000, guid: 1da63f994cdddb44cba31650c661f3e4, type: 3}
  - {fileID: 21300000, guid: 12098c673ab614e4891fd2fa77ec4cd6, type: 3}
  - {fileID: 21300000, guid: 48bcfc4e7d4f5df41affe67fc4d81843, type: 3}
  size: {x: 0.1, y: 0.1, z: 1}
  NAME: "\u30DF\u30CE\u30BF\u30A6\u30ED\u30B9"
  MAX_HP: 10
  HP: 10
  ATC: 2
  DEF: 1
  EXP: 60
  RANK: 0
  LIFE: 0
  weapon: 2
  isColl: 0
--- !u!212 &6454934921601268520
SpriteRenderer:
  m_ObjectHideFlags: 0
  m_CorrespondingSourceObject: {fileID: 0}
  m_PrefabInstance: {fileID: 0}
  m_PrefabAsset: {fileID: 0}
  m_GameObject: {fileID: 712208692472389294}
  m_Enabled: 1
  m_CastShadows: 0
  m_ReceiveShadows: 0
  m_DynamicOccludee: 1
  m_MotionVectors: 1
  m_LightProbeUsage: 1
  m_ReflectionProbeUsage: 1
  m_RayTracingMode: 0
  m_RayTraceProcedural: 0
  m_RenderingLayerMask: 1
  m_RendererPriority: 0
  m_Materials:
  - {fileID: 10754, guid: 0000000000000000f000000000000000, type: 0}
  m_StaticBatchInfo:
    firstSubMesh: 0
    subMeshCount: 0
  m_StaticBatchRoot: {fileID: 0}
  m_ProbeAnchor: {fileID: 0}
  m_LightProbeVolumeOverride: {fileID: 0}
  m_ScaleInLightmap: 1
  m_ReceiveGI: 1
  m_PreserveUVs: 0
  m_IgnoreNormalsForChartDetection: 0
  m_ImportantGI: 0
  m_StitchLightmapSeams: 1
  m_SelectedEditorRenderState: 0
  m_MinimumChartSize: 4
  m_AutoUVMaxDistance: 0.5
  m_AutoUVMaxAngle: 89
  m_LightmapParameters: {fileID: 0}
  m_SortingLayerID: 0
  m_SortingLayer: 0
  m_SortingOrder: 7
  m_Sprite: {fileID: 0}
  m_Color: {r: 1, g: 1, b: 1, a: 1}
  m_FlipX: 0
  m_FlipY: 0
  m_DrawMode: 0
  m_Size: {x: 28.3, y: 17.563135}
  m_AdaptiveModeThreshold: 0.5
  m_SpriteTileMode: 0
  m_WasSpriteAssigned: 0
  m_MaskInteraction: 0
  m_SpriteSortPoint: 0
