%YAML 1.1
%TAG !u! tag:unity3d.com,2011:
--- !u!1 &7425883444394789816
GameObject:
  m_ObjectHideFlags: 0
  m_CorrespondingSourceObject: {fileID: 0}
  m_PrefabInstance: {fileID: 0}
  m_PrefabAsset: {fileID: 0}
  serializedVersion: 6
  m_Component:
  - component: {fileID: 4251396661026247332}
  - component: {fileID: 1446825649628264370}
  - component: {fileID: 525552646780552294}
  m_Layer: 0
  m_Name: Angel
  m_TagString: Untagged
  m_Icon: {fileID: 0}
  m_NavMeshLayer: 0
  m_StaticEditorFlags: 0
  m_IsActive: 1
--- !u!4 &4251396661026247332
Transform:
  m_ObjectHideFlags: 0
  m_CorrespondingSourceObject: {fileID: 0}
  m_PrefabInstance: {fileID: 0}
  m_PrefabAsset: {fileID: 0}
  m_GameObject: {fileID: 7425883444394789816}
  m_LocalRotation: {x: 0, y: 0, z: 0, w: 1}
  m_LocalPosition: {x: 0, y: 0, z: 0}
  m_LocalScale: {x: 1, y: 1, z: 1}
  m_Children: []
  m_Father: {fileID: 0}
  m_RootOrder: 0
  m_LocalEulerAnglesHint: {x: 0, y: 0, z: 0}
--- !u!114 &1446825649628264370
MonoBehaviour:
  m_ObjectHideFlags: 0
  m_CorrespondingSourceObject: {fileID: 0}
  m_PrefabInstance: {fileID: 0}
  m_PrefabAsset: {fileID: 0}
  m_GameObject: {fileID: 7425883444394789816}
  m_Enabled: 1
  m_EditorHideFlags: 0
  m_Script: {fileID: 11500000, guid: 77cb99c3061f5074e94a464f47d494eb, type: 3}
  m_Name: 
  m_EditorClassIdentifier: 
  sprites:
  - {fileID: 21300000, guid: ef0fcac2f75593b45999d1196019effb, type: 3}
  - {fileID: 21300000, guid: 99a6e3211a84c8341a1ccb2898169b9d, type: 3}
  - {fileID: 21300000, guid: 99a6e3211a84c8341a1ccb2898169b9d, type: 3}
  - {fileID: 21300000, guid: e6095c4c42151ef44a1f241876acbd75, type: 3}
  - {fileID: 21300000, guid: d72fdc8bedd9bc84cbe31c00be4ecf21, type: 3}
  - {fileID: 21300000, guid: d72fdc8bedd9bc84cbe31c00be4ecf21, type: 3}
  - {fileID: 21300000, guid: 743f7ac84e065b748b7c2ff33b9bb0db, type: 3}
  - {fileID: 21300000, guid: 157460dd9b1604f4fafa05d02d0837d3, type: 3}
  - {fileID: 21300000, guid: 157460dd9b1604f4fafa05d02d0837d3, type: 3}
  - {fileID: 21300000, guid: 809180f110f13c142a40b040484ce6e7, type: 3}
  - {fileID: 21300000, guid: 945ad5289ecae434f92545be4ce60652, type: 3}
  - {fileID: 21300000, guid: 945ad5289ecae434f92545be4ce60652, type: 3}
  size: {x: 0.08, y: 0.08, z: 1}
  NAME: "\u5929\u4F7F"
  MAX_HP: 0
  HP: 0
  ATC: 0
  DEF: 0
  EXP: 150
  LIFE: 0
  weapon: 3
--- !u!212 &525552646780552294
SpriteRenderer:
  m_ObjectHideFlags: 0
  m_CorrespondingSourceObject: {fileID: 0}
  m_PrefabInstance: {fileID: 0}
  m_PrefabAsset: {fileID: 0}
  m_GameObject: {fileID: 7425883444394789816}
  m_Enabled: 1
  m_CastShadows: 0
  m_ReceiveShadows: 0
  m_DynamicOccludee: 1
  m_MotionVectors: 1
  m_LightProbeUsage: 1
  m_ReflectionProbeUsage: 1
  m_RayTracingMode: 0
  m_RayTraceProcedural: 0
  m_RenderingLayerMask: 1
  m_RendererPriority: 0
  m_Materials:
  - {fileID: 10754, guid: 0000000000000000f000000000000000, type: 0}
  m_StaticBatchInfo:
    firstSubMesh: 0
    subMeshCount: 0
  m_StaticBatchRoot: {fileID: 0}
  m_ProbeAnchor: {fileID: 0}
  m_LightProbeVolumeOverride: {fileID: 0}
  m_ScaleInLightmap: 1
  m_ReceiveGI: 1
  m_PreserveUVs: 0
  m_IgnoreNormalsForChartDetection: 0
  m_ImportantGI: 0
  m_StitchLightmapSeams: 1
  m_SelectedEditorRenderState: 0
  m_MinimumChartSize: 4
  m_AutoUVMaxDistance: 0.5
  m_AutoUVMaxAngle: 89
  m_LightmapParameters: {fileID: 0}
  m_SortingLayerID: 0
  m_SortingLayer: 0
  m_SortingOrder: 7
  m_Sprite: {fileID: 0}
  m_Color: {r: 1, g: 1, b: 1, a: 1}
  m_FlipX: 0
  m_FlipY: 0
  m_DrawMode: 0
  m_Size: {x: 1, y: 1}
  m_AdaptiveModeThreshold: 0.5
  m_SpriteTileMode: 0
  m_WasSpriteAssigned: 0
  m_MaskInteraction: 0
  m_SpriteSortPoint: 0
