%YAML 1.1
%TAG !u! tag:unity3d.com,2011:
--- !u!162 &1
EditorUserSettings:
  m_ObjectHideFlags: 0
  serializedVersion: 4
  m_ConfigSettings:
    RecentlyUsedScenePath-0:
      value: 224247031146460b58290d2f150c491504241b2f222d69172c24181cf4e5260be1e238eca92f31352d1b
      flags: 0
    RecentlyUsedScenePath-1:
      value: 224247031146460b5e3e002309105c15181257192f3a2f20393a5203eee12d0be1e238eca92f31352d1b
      flags: 0
    RecentlyUsedScenePath-2:
      value: 224247031146460b5f390923002c5123131b1d29381b2535232c5204e7e12437ecd433e5e2392b0f3a07e1394a2b0f36e613
      flags: 0
    RecentlyUsedScenePath-3:
      value: 224247031146460b592b0226192d58231512162f630d283424271a00e1e53a3dacf238e0f323
      flags: 0
    RecentlyUsedScenePath-4:
      value: 224247031146460b5e3e002309105c151812571a20293f032e2c1336acf53a31f6fe
      flags: 0
    RecentlyUsedScenePath-5:
      value: 224247031146460b5c3a182b042f5a231512162f631c2f24212c2e30e7ee3177d6ee22e5e2093c393707a1290a371526
      flags: 0
    vcSharedLogLevel:
      value: 0d5e400f0650
      flags: 0
  m_VCAutomaticAdd: 1
  m_VCDebugCom: 0
  m_VCDebugCmd: 0
  m_VCDebugOut: 0
  m_SemanticMergeMode: 2
  m_VCShowFailedCheckout: 1
  m_VCOverwriteFailedCheckoutAssets: 1
  m_VCProjectOverlayIcons: 1
  m_VCHierarchyOverlayIcons: 1
  m_VCOtherOverlayIcons: 1
  m_VCAllowAsyncUpdate: 1
