%YAML 1.1
%TAG !u! tag:unity3d.com,2011:
--- !u!1 &6963627704115792759
GameObject:
  m_ObjectHideFlags: 0
  m_CorrespondingSourceObject: {fileID: 0}
  m_PrefabInstance: {fileID: 0}
  m_PrefabAsset: {fileID: 0}
  serializedVersion: 6
  m_Component:
  - component: {fileID: 2080019124692633301}
  - component: {fileID: 7186483011832485002}
  - component: {fileID: 3583103401415061763}
  m_Layer: 0
  m_Name: Trent
  m_TagString: Untagged
  m_Icon: {fileID: 0}
  m_NavMeshLayer: 0
  m_StaticEditorFlags: 0
  m_IsActive: 1
--- !u!4 &2080019124692633301
Transform:
  m_ObjectHideFlags: 0
  m_CorrespondingSourceObject: {fileID: 0}
  m_PrefabInstance: {fileID: 0}
  m_PrefabAsset: {fileID: 0}
  m_GameObject: {fileID: 6963627704115792759}
  m_LocalRotation: {x: 0, y: 0, z: 0, w: 1}
  m_LocalPosition: {x: 0, y: 0, z: 0}
  m_LocalScale: {x: 0.25, y: 0.25, z: 1}
  m_Children: []
  m_Father: {fileID: 0}
  m_RootOrder: 0
  m_LocalEulerAnglesHint: {x: 0, y: 0, z: 0}
--- !u!114 &7186483011832485002
MonoBehaviour:
  m_ObjectHideFlags: 0
  m_CorrespondingSourceObject: {fileID: 0}
  m_PrefabInstance: {fileID: 0}
  m_PrefabAsset: {fileID: 0}
  m_GameObject: {fileID: 6963627704115792759}
  m_Enabled: 1
  m_EditorHideFlags: 0
  m_Script: {fileID: 11500000, guid: 0c53c439dc941454ca50b49d600716a8, type: 3}
  m_Name: 
  m_EditorClassIdentifier: 
  sprites:
  - {fileID: 21300000, guid: 2ba0df6be9cd8174d8bcfcfe201ebe74, type: 3}
  - {fileID: 21300000, guid: 2ba0df6be9cd8174d8bcfcfe201ebe74, type: 3}
  - {fileID: 21300000, guid: 2ba0df6be9cd8174d8bcfcfe201ebe74, type: 3}
  - {fileID: 21300000, guid: 2ba0df6be9cd8174d8bcfcfe201ebe74, type: 3}
  - {fileID: 21300000, guid: 2ba0df6be9cd8174d8bcfcfe201ebe74, type: 3}
  - {fileID: 21300000, guid: 2ba0df6be9cd8174d8bcfcfe201ebe74, type: 3}
  - {fileID: 21300000, guid: 2ba0df6be9cd8174d8bcfcfe201ebe74, type: 3}
  - {fileID: 21300000, guid: 2ba0df6be9cd8174d8bcfcfe201ebe74, type: 3}
  - {fileID: 21300000, guid: 2ba0df6be9cd8174d8bcfcfe201ebe74, type: 3}
  - {fileID: 21300000, guid: 2ba0df6be9cd8174d8bcfcfe201ebe74, type: 3}
  - {fileID: 21300000, guid: 2ba0df6be9cd8174d8bcfcfe201ebe74, type: 3}
  - {fileID: 21300000, guid: 2ba0df6be9cd8174d8bcfcfe201ebe74, type: 3}
  size: {x: 0.18, y: 0.18, z: 1}
  NAME: "\u30C8\u30EC\u30F3\u30C8(\u30DC\u30B9)"
  MAX_HP: 150
  HP: 150
  ATC: 5
  DEF: 5
  EXP: 0
  LIFE: 0
  weapon: 0
  isColl: 0
  initPos: {x: 8, y: -8, z: 1}
  initScale: {x: 0.25, y: 0.25, z: 1}
  recovery: 20
  longDm: 2
  shortDm: 3
  longAtackRange: 3
  shortAtackRange: 1
  collEnemyRange: 4
  collEnemys: 5
--- !u!212 &3583103401415061763
SpriteRenderer:
  m_ObjectHideFlags: 0
  m_CorrespondingSourceObject: {fileID: 0}
  m_PrefabInstance: {fileID: 0}
  m_PrefabAsset: {fileID: 0}
  m_GameObject: {fileID: 6963627704115792759}
  m_Enabled: 1
  m_CastShadows: 0
  m_ReceiveShadows: 0
  m_DynamicOccludee: 1
  m_MotionVectors: 1
  m_LightProbeUsage: 1
  m_ReflectionProbeUsage: 1
  m_RayTracingMode: 0
  m_RayTraceProcedural: 0
  m_RenderingLayerMask: 1
  m_RendererPriority: 0
  m_Materials:
  - {fileID: 10754, guid: 0000000000000000f000000000000000, type: 0}
  m_StaticBatchInfo:
    firstSubMesh: 0
    subMeshCount: 0
  m_StaticBatchRoot: {fileID: 0}
  m_ProbeAnchor: {fileID: 0}
  m_LightProbeVolumeOverride: {fileID: 0}
  m_ScaleInLightmap: 1
  m_ReceiveGI: 1
  m_PreserveUVs: 0
  m_IgnoreNormalsForChartDetection: 0
  m_ImportantGI: 0
  m_StitchLightmapSeams: 1
  m_SelectedEditorRenderState: 0
  m_MinimumChartSize: 4
  m_AutoUVMaxDistance: 0.5
  m_AutoUVMaxAngle: 89
  m_LightmapParameters: {fileID: 0}
  m_SortingLayerID: 0
  m_SortingLayer: 0
  m_SortingOrder: 7
  m_Sprite: {fileID: 0}
  m_Color: {r: 1, g: 1, b: 1, a: 1}
  m_FlipX: 0
  m_FlipY: 0
  m_DrawMode: 0
  m_Size: {x: 1, y: 1}
  m_AdaptiveModeThreshold: 0.5
  m_SpriteTileMode: 0
  m_WasSpriteAssigned: 0
  m_MaskInteraction: 0
  m_SpriteSortPoint: 0
