[api-updater (non-obsolete-error-filter)] 2021/12/21 10:03:40 : Starting C:/Program Files/Unity/Hub/Editor/2020.3.2f1/Editor/Data/Tools/ScriptUpdater/APIUpdater.NonObsoleteApiUpdaterDetector.exe
[api-updater (non-obsolete-error-filter)] 
----------------------------------
jit/startup time      : 1095.523ms
moved types parse time: 76ms
candidates parse time : 2ms
C# parse time         : 598ms
candidates check time : 56ms
console write time    : 0ms

[api-updater (non-obsolete-error-filter)] 2021/12/21 10:09:07 : Starting C:/Program Files/Unity/Hub/Editor/2020.3.2f1/Editor/Data/Tools/ScriptUpdater/APIUpdater.NonObsoleteApiUpdaterDetector.exe
[api-updater (non-obsolete-error-filter)] 
----------------------------------
jit/startup time      : 109.3221ms
moved types parse time: 50ms
candidates parse time : 1ms
C# parse time         : 253ms
candidates check time : 50ms
console write time    : 0ms

[api-updater (non-obsolete-error-filter)] 2021/12/21 10:09:18 : Starting C:/Program Files/Unity/Hub/Editor/2020.3.2f1/Editor/Data/Tools/ScriptUpdater/APIUpdater.NonObsoleteApiUpdaterDetector.exe
[api-updater (non-obsolete-error-filter)] 
----------------------------------
jit/startup time      : 97.6643ms
moved types parse time: 50ms
candidates parse time : 1ms
C# parse time         : 249ms
candidates check time : 49ms
console write time    : 0ms

[api-updater (non-obsolete-error-filter)] 2021/12/21 10:10:01 : Starting C:/Program Files/Unity/Hub/Editor/2020.3.2f1/Editor/Data/Tools/ScriptUpdater/APIUpdater.NonObsoleteApiUpdaterDetector.exe
[api-updater (non-obsolete-error-filter)] 
----------------------------------
jit/startup time      : 109.35ms
moved types parse time: 50ms
candidates parse time : 1ms
C# parse time         : 264ms
candidates check time : 47ms
console write time    : 0ms

[api-updater (non-obsolete-error-filter)] 2021/12/21 10:39:09 : Starting C:/Program Files/Unity/Hub/Editor/2020.3.2f1/Editor/Data/Tools/ScriptUpdater/APIUpdater.NonObsoleteApiUpdaterDetector.exe
[api-updater (non-obsolete-error-filter)] 
----------------------------------
jit/startup time      : 112.9093ms
moved types parse time: 55ms
candidates parse time : 1ms
C# parse time         : 245ms
candidates check time : 54ms
console write time    : 0ms

[api-updater (non-obsolete-error-filter)] 2021/12/21 10:42:26 : Starting C:/Program Files/Unity/Hub/Editor/2020.3.2f1/Editor/Data/Tools/ScriptUpdater/APIUpdater.NonObsoleteApiUpdaterDetector.exe
[api-updater (non-obsolete-error-filter)] 
----------------------------------
jit/startup time      : 111.0057ms
moved types parse time: 61ms
candidates parse time : 2ms
C# parse time         : 267ms
candidates check time : 46ms
console write time    : 0ms

[api-updater (non-obsolete-error-filter)] 2021/12/21 10:42:28 : Starting C:/Program Files/Unity/Hub/Editor/2020.3.2f1/Editor/Data/Tools/ScriptUpdater/APIUpdater.NonObsoleteApiUpdaterDetector.exe
[api-updater (non-obsolete-error-filter)] 
----------------------------------
jit/startup time      : 116.4163ms
moved types parse time: 66ms
candidates parse time : 1ms
C# parse time         : 400ms
candidates check time : 50ms
console write time    : 0ms

[api-updater (non-obsolete-error-filter)] 2022/01/11 14:15:03 : Starting C:/Program Files/Unity/Hub/Editor/2020.3.2f1/Editor/Data/Tools/ScriptUpdater/APIUpdater.NonObsoleteApiUpdaterDetector.exe
[api-updater (non-obsolete-error-filter)] 
----------------------------------
jit/startup time      : 429.9678ms
moved types parse time: 55ms
candidates parse time : 1ms
C# parse time         : 359ms
candidates check time : 37ms
console write time    : 0ms

[api-updater (non-obsolete-error-filter)] 2022/01/11 14:17:11 : Starting C:/Program Files/Unity/Hub/Editor/2020.3.2f1/Editor/Data/Tools/ScriptUpdater/APIUpdater.NonObsoleteApiUpdaterDetector.exe
[api-updater (non-obsolete-error-filter)] 
----------------------------------
jit/startup time      : 102.7254ms
moved types parse time: 55ms
candidates parse time : 2ms
C# parse time         : 252ms
candidates check time : 37ms
console write time    : 0ms

[api-updater (non-obsolete-error-filter)] 2022/01/11 14:20:34 : Starting C:/Program Files/Unity/Hub/Editor/2020.3.2f1/Editor/Data/Tools/ScriptUpdater/APIUpdater.NonObsoleteApiUpdaterDetector.exe
[api-updater (non-obsolete-error-filter)] 
----------------------------------
jit/startup time      : 82.8047ms
moved types parse time: 47ms
candidates parse time : 1ms
C# parse time         : 229ms
candidates check time : 37ms
console write time    : 0ms

[api-updater (non-obsolete-error-filter)] 2022/01/11 14:23:21 : Starting C:/Program Files/Unity/Hub/Editor/2020.3.2f1/Editor/Data/Tools/ScriptUpdater/APIUpdater.NonObsoleteApiUpdaterDetector.exe
[api-updater (non-obsolete-error-filter)] 
----------------------------------
jit/startup time      : 78.7906ms
moved types parse time: 48ms
candidates parse time : 1ms
C# parse time         : 227ms
candidates check time : 37ms
console write time    : 0ms

[api-updater (non-obsolete-error-filter)] 2022/01/11 14:23:22 : Starting C:/Program Files/Unity/Hub/Editor/2020.3.2f1/Editor/Data/Tools/ScriptUpdater/APIUpdater.NonObsoleteApiUpdaterDetector.exe
[api-updater (non-obsolete-error-filter)] 
----------------------------------
jit/startup time      : 81.8253ms
moved types parse time: 46ms
candidates parse time : 2ms
C# parse time         : 212ms
candidates check time : 37ms
console write time    : 0ms

[api-updater (non-obsolete-error-filter)] 2022/01/11 14:24:59 : Starting C:/Program Files/Unity/Hub/Editor/2020.3.2f1/Editor/Data/Tools/ScriptUpdater/APIUpdater.NonObsoleteApiUpdaterDetector.exe
[api-updater (non-obsolete-error-filter)] 
----------------------------------
jit/startup time      : 79.786ms
moved types parse time: 55ms
candidates parse time : 1ms
C# parse time         : 286ms
candidates check time : 39ms
console write time    : 0ms

[api-updater (non-obsolete-error-filter)] 2022/01/11 14:29:44 : Starting C:/Program Files/Unity/Hub/Editor/2020.3.2f1/Editor/Data/Tools/ScriptUpdater/APIUpdater.NonObsoleteApiUpdaterDetector.exe
[api-updater (non-obsolete-error-filter)] 
----------------------------------
jit/startup time      : 97.7386ms
moved types parse time: 47ms
candidates parse time : 1ms
C# parse time         : 208ms
candidates check time : 36ms
console write time    : 0ms

[api-updater (non-obsolete-error-filter)] 2022/01/11 15:45:31 : Starting C:/Program Files/Unity/Hub/Editor/2020.3.2f1/Editor/Data/Tools/ScriptUpdater/APIUpdater.NonObsoleteApiUpdaterDetector.exe
[api-updater (non-obsolete-error-filter)] 
----------------------------------
jit/startup time      : 461.7648ms
moved types parse time: 67ms
candidates parse time : 1ms
C# parse time         : 295ms
candidates check time : 36ms
console write time    : 0ms

