%YAML 1.1
%TAG !u! tag:unity3d.com,2011:
--- !u!1 &7577073326967695391
GameObject:
  m_ObjectHideFlags: 0
  m_CorrespondingSourceObject: {fileID: 0}
  m_PrefabInstance: {fileID: 0}
  m_PrefabAsset: {fileID: 0}
  serializedVersion: 6
  m_Component:
  - component: {fileID: 5073414160673366062}
  - component: {fileID: 6721696088022333084}
  - component: {fileID: 1964506244750973267}
  m_Layer: 0
  m_Name: Knight
  m_TagString: Untagged
  m_Icon: {fileID: 0}
  m_NavMeshLayer: 0
  m_StaticEditorFlags: 0
  m_IsActive: 1
--- !u!4 &5073414160673366062
Transform:
  m_ObjectHideFlags: 0
  m_CorrespondingSourceObject: {fileID: 0}
  m_PrefabInstance: {fileID: 0}
  m_PrefabAsset: {fileID: 0}
  m_GameObject: {fileID: 7577073326967695391}
  m_LocalRotation: {x: 0, y: 0, z: 0, w: 1}
  m_LocalPosition: {x: 0, y: 0, z: 0}
  m_LocalScale: {x: 1, y: 1, z: 1}
  m_Children: []
  m_Father: {fileID: 0}
  m_RootOrder: 0
  m_LocalEulerAnglesHint: {x: 0, y: 0, z: 0}
--- !u!114 &6721696088022333084
MonoBehaviour:
  m_ObjectHideFlags: 0
  m_CorrespondingSourceObject: {fileID: 0}
  m_PrefabInstance: {fileID: 0}
  m_PrefabAsset: {fileID: 0}
  m_GameObject: {fileID: 7577073326967695391}
  m_Enabled: 1
  m_EditorHideFlags: 0
  m_Script: {fileID: 11500000, guid: 9f88b976a9fa28c49adc127ff47d3166, type: 3}
  m_Name: 
  m_EditorClassIdentifier: 
  sprites:
  - {fileID: 21300000, guid: ed6ad3f18acac0d4d8d61c8e07808057, type: 3}
  - {fileID: 21300000, guid: fe660f11f711b014f82e1cfb052245c4, type: 3}
  - {fileID: 21300000, guid: 6125a62619928d64a9ef9977ea3aaf6a, type: 3}
  - {fileID: 21300000, guid: 6cfaaf532e275464fbae7678f6271dd9, type: 3}
  - {fileID: 21300000, guid: 29835883ec3ae874eaea0793719bd9b1, type: 3}
  - {fileID: 21300000, guid: 414ff8307d190444486a6687063b8be2, type: 3}
  - {fileID: 21300000, guid: 1c35ddb8a6b0e2e40b93f6dae9fe86cc, type: 3}
  - {fileID: 21300000, guid: bc71a92ae27f4aa4193505012e3927a3, type: 3}
  - {fileID: 21300000, guid: 768b49a5cd7768c448039a4c9fbd2118, type: 3}
  - {fileID: 21300000, guid: 503342d3cb678634e95a6023c7764b10, type: 3}
  - {fileID: 21300000, guid: 3f91cd42bd5021440a99c54fb478001a, type: 3}
  - {fileID: 21300000, guid: 16ac601435020e946b10ae9088825ccc, type: 3}
  size: {x: 0.1, y: 0.1, z: 1}
  NAME: "\u30CA\u30A4\u30C8"
  MAX_HP: 0
  HP: 0
  ATC: 0
  DEF: 0
  EXP: 180
  LIFE: 0
  weapon: 1
--- !u!212 &1964506244750973267
SpriteRenderer:
  m_ObjectHideFlags: 0
  m_CorrespondingSourceObject: {fileID: 0}
  m_PrefabInstance: {fileID: 0}
  m_PrefabAsset: {fileID: 0}
  m_GameObject: {fileID: 7577073326967695391}
  m_Enabled: 1
  m_CastShadows: 0
  m_ReceiveShadows: 0
  m_DynamicOccludee: 1
  m_MotionVectors: 1
  m_LightProbeUsage: 1
  m_ReflectionProbeUsage: 1
  m_RayTracingMode: 0
  m_RayTraceProcedural: 0
  m_RenderingLayerMask: 1
  m_RendererPriority: 0
  m_Materials:
  - {fileID: 10754, guid: 0000000000000000f000000000000000, type: 0}
  m_StaticBatchInfo:
    firstSubMesh: 0
    subMeshCount: 0
  m_StaticBatchRoot: {fileID: 0}
  m_ProbeAnchor: {fileID: 0}
  m_LightProbeVolumeOverride: {fileID: 0}
  m_ScaleInLightmap: 1
  m_ReceiveGI: 1
  m_PreserveUVs: 0
  m_IgnoreNormalsForChartDetection: 0
  m_ImportantGI: 0
  m_StitchLightmapSeams: 1
  m_SelectedEditorRenderState: 0
  m_MinimumChartSize: 4
  m_AutoUVMaxDistance: 0.5
  m_AutoUVMaxAngle: 89
  m_LightmapParameters: {fileID: 0}
  m_SortingLayerID: 0
  m_SortingLayer: 0
  m_SortingOrder: 7
  m_Sprite: {fileID: 0}
  m_Color: {r: 1, g: 1, b: 1, a: 1}
  m_FlipX: 0
  m_FlipY: 0
  m_DrawMode: 0
  m_Size: {x: 1, y: 1}
  m_AdaptiveModeThreshold: 0.5
  m_SpriteTileMode: 0
  m_WasSpriteAssigned: 0
  m_MaskInteraction: 0
  m_SpriteSortPoint: 0
