%YAML 1.1
%TAG !u! tag:unity3d.com,2011:
--- !u!1 &8895747535181628898
GameObject:
  m_ObjectHideFlags: 0
  m_CorrespondingSourceObject: {fileID: 0}
  m_PrefabInstance: {fileID: 0}
  m_PrefabAsset: {fileID: 0}
  serializedVersion: 6
  m_Component:
  - component: {fileID: 2974823758067248710}
  - component: {fileID: 254594194075120724}
  - component: {fileID: 9191441614847115610}
  m_Layer: 0
  m_Name: Slime
  m_TagString: Untagged
  m_Icon: {fileID: 0}
  m_NavMeshLayer: 0
  m_StaticEditorFlags: 0
  m_IsActive: 1
--- !u!4 &2974823758067248710
Transform:
  m_ObjectHideFlags: 0
  m_CorrespondingSourceObject: {fileID: 0}
  m_PrefabInstance: {fileID: 0}
  m_PrefabAsset: {fileID: 0}
  m_GameObject: {fileID: 8895747535181628898}
  m_LocalRotation: {x: 0, y: 0, z: 0, w: 1}
  m_LocalPosition: {x: 0, y: 0, z: 0}
  m_LocalScale: {x: 1, y: 1, z: 1}
  m_Children: []
  m_Father: {fileID: 0}
  m_RootOrder: 0
  m_LocalEulerAnglesHint: {x: 0, y: 0, z: 0}
--- !u!114 &254594194075120724
MonoBehaviour:
  m_ObjectHideFlags: 0
  m_CorrespondingSourceObject: {fileID: 0}
  m_PrefabInstance: {fileID: 0}
  m_PrefabAsset: {fileID: 0}
  m_GameObject: {fileID: 8895747535181628898}
  m_Enabled: 1
  m_EditorHideFlags: 0
  m_Script: {fileID: 11500000, guid: 22647760aa07251428fb60ab2b4d601f, type: 3}
  m_Name: 
  m_EditorClassIdentifier: 
  sprites:
  - {fileID: 21300000, guid: 12df123dc8bccef4ba9798ec4a39035c, type: 3}
  - {fileID: 21300000, guid: 7bb266cb7cd8cf1448ca5b874655c5dd, type: 3}
  - {fileID: 21300000, guid: 7bb266cb7cd8cf1448ca5b874655c5dd, type: 3}
  - {fileID: 21300000, guid: abeeb52648cf503438cbb6b2bd3dc316, type: 3}
  - {fileID: 21300000, guid: d067d032c5dec21479c59c3358f2279f, type: 3}
  - {fileID: 21300000, guid: d067d032c5dec21479c59c3358f2279f, type: 3}
  - {fileID: 21300000, guid: 1ef68bc6209ff1340b94afbd0fdb0359, type: 3}
  - {fileID: 21300000, guid: 2f6d25a7c06c8c24f8c91f9a8d1a7be2, type: 3}
  - {fileID: 21300000, guid: 2f6d25a7c06c8c24f8c91f9a8d1a7be2, type: 3}
  - {fileID: 21300000, guid: d984d83db90b0a24f8031003dd08abd8, type: 3}
  - {fileID: 21300000, guid: 7bc4968e45551b44896b5f4299f0da3f, type: 3}
  - {fileID: 21300000, guid: 7bc4968e45551b44896b5f4299f0da3f, type: 3}
  size: {x: 0.08, y: 0.08, z: 1}
  NAME: "\u30B9\u30E9\u30A4\u30E0"
  MAX_HP: 0
  HP: 0
  ATC: 0
  DEF: 0
  EXP: 90
  LIFE: 0
  weapon: 2
--- !u!212 &9191441614847115610
SpriteRenderer:
  m_ObjectHideFlags: 0
  m_CorrespondingSourceObject: {fileID: 0}
  m_PrefabInstance: {fileID: 0}
  m_PrefabAsset: {fileID: 0}
  m_GameObject: {fileID: 8895747535181628898}
  m_Enabled: 1
  m_CastShadows: 0
  m_ReceiveShadows: 0
  m_DynamicOccludee: 1
  m_MotionVectors: 1
  m_LightProbeUsage: 1
  m_ReflectionProbeUsage: 1
  m_RayTracingMode: 0
  m_RayTraceProcedural: 0
  m_RenderingLayerMask: 1
  m_RendererPriority: 0
  m_Materials:
  - {fileID: 10754, guid: 0000000000000000f000000000000000, type: 0}
  m_StaticBatchInfo:
    firstSubMesh: 0
    subMeshCount: 0
  m_StaticBatchRoot: {fileID: 0}
  m_ProbeAnchor: {fileID: 0}
  m_LightProbeVolumeOverride: {fileID: 0}
  m_ScaleInLightmap: 1
  m_ReceiveGI: 1
  m_PreserveUVs: 0
  m_IgnoreNormalsForChartDetection: 0
  m_ImportantGI: 0
  m_StitchLightmapSeams: 1
  m_SelectedEditorRenderState: 0
  m_MinimumChartSize: 4
  m_AutoUVMaxDistance: 0.5
  m_AutoUVMaxAngle: 89
  m_LightmapParameters: {fileID: 0}
  m_SortingLayerID: 0
  m_SortingLayer: 0
  m_SortingOrder: 7
  m_Sprite: {fileID: 0}
  m_Color: {r: 1, g: 1, b: 1, a: 1}
  m_FlipX: 0
  m_FlipY: 0
  m_DrawMode: 0
  m_Size: {x: 1, y: 1}
  m_AdaptiveModeThreshold: 0.5
  m_SpriteTileMode: 0
  m_WasSpriteAssigned: 0
  m_MaskInteraction: 0
  m_SpriteSortPoint: 0
